constituency,ref,kesk,ekre,isamaa,sde,e200,eer,ee,ve,euvp,independent
"Haabersti, Põhja-Tallinn and Kristiine",16299,16950,6361,4950,5683,2635,1812,639,464,70,328
"Kesklinn, Lasnamäe and Pirita",18400,26335,7110,5416,5896,3761,1471,682,451,113,329
Mustamäe and Nõmme,16209,11945,7055,5086,4651,2315,1227,544,714,37,99
Harju and Rapla,34571,13681,16638,10094,7621,3669,1686,1443,1078,83,165
"Hiiu, Lääne and Saare",9150,5736,6894,3347,3414,1404,639,350,644,13,406
Lääne-Viru,6396,5371,5768,5461,2428,828,310,175,185,12,0
Ida-Viru,3769,13700,2234,1767,4008,1011,204,106,149,65,0
Järva and Viljandi,9777,6253,8389,6176,4682,1060,377,350,281,13,90
Jõgeva and Tartu,11399,6438,9362,7308,3891,1789,616,439,571,34,0
Tartu,15504,6099,7641,5416,5087,2677,939,601,837,30,0
"Võru, Valga and Põlva",10029,9197,10644,4153,5034,1909,440,905,606,0,173
Pärnu,10860,7913,11575,5045,2780,1390,506,624,481,41,0
,,,,,,,,,,,
,,,,,,,,,,,
,,,,,,,,,,,
,,,,,,,,,,,
,,,,,,,,,,,
,,,,,,,,,,,
, ,,,,,,,,,,
